        -:    0:Source:bc.f90
        -:    0:Graph:bc.gcno
        -:    0:Data:bc.gcda
        -:    0:Runs:1
        -:    0:Programs:1
        -:    1:
        -:    2:!-------------------------------------------------------------------
        -:    3:!   This subroutine is used to collect data into ghost cells                                                         
        -:    4:!   Called by
        -:    5:!      TVD_SOLVER
        -:    6:!
        -:    7:!   Call PHI_COLL
        -:    8:!
        -:    9:!   Update: 07/09/2010 Fengyan Shi, 
        -:   10:!     1) use dummy variables 2) add vtype=3
        -:   11:!-------------------------------------------------------------------
    #####:   12:SUBROUTINE EXCHANGE_DISPERSION
        -:   13:    USE GLOBAL
        -:   14:    IMPLICIT NONE
        -:   15:    INTEGER :: VTYPE
        -:   16:
    #####:   17:    VTYPE=2
    #####:   18:    CALL PHI_COLL(Mloc,Nloc,Ibeg,Iend,Jbeg,Jend,Nghost,Uxx,VTYPE,PERIODIC)
    #####:   19:    CALL PHI_COLL(Mloc,Nloc,Ibeg,Iend,Jbeg,Jend,Nghost,DUxx,VTYPE,PERIODIC)
    #####:   20:    VTYPE=3
    #####:   21:    CALL PHI_COLL(Mloc,Nloc,Ibeg,Iend,Jbeg,Jend,Nghost,Vyy,VTYPE,PERIODIC)
    #####:   22:    CALL PHI_COLL(Mloc,Nloc,Ibeg,Iend,Jbeg,Jend,Nghost,DVyy,VTYPE,PERIODIC)
        -:   23:
    #####:   24:    VTYPE=1
    #####:   25:    CALL PHI_COLL(Mloc,Nloc,Ibeg,Iend,Jbeg,Jend,Nghost,Uxy,VTYPE,PERIODIC)
    #####:   26:    CALL PHI_COLL(Mloc,Nloc,Ibeg,Iend,Jbeg,Jend,Nghost,DUxy,VTYPE,PERIODIC)
    #####:   27:    CALL PHI_COLL(Mloc,Nloc,Ibeg,Iend,Jbeg,Jend,Nghost,Vxy,VTYPE,PERIODIC)
    #####:   28:    CALL PHI_COLL(Mloc,Nloc,Ibeg,Iend,Jbeg,Jend,Nghost,DVxy,VTYPE,PERIODIC)
        -:   29:
    #####:   30:    IF(Gamma2>ZERO)THEN
        -:   31:
    #####:   32:      IF(DISP_TIME_LEFT)THEN
    #####:   33:        VTYPE=1 ! symetric in both direction
    #####:   34:        CALL PHI_COLL(Mloc,Nloc,Ibeg,Iend,Jbeg,Jend,Nghost,ETAT,VTYPE,PERIODIC)
    #####:   35:        VTYPE=2  ! like u
    #####:   36:        CALL PHI_COLL(Mloc,Nloc,Ibeg,Iend,Jbeg,Jend,Nghost,ETATx,VTYPE,PERIODIC)
    #####:   37:        VTYPE=3  ! like v
    #####:   38:        CALL PHI_COLL(Mloc,Nloc,Ibeg,Iend,Jbeg,Jend,Nghost,ETATy,VTYPE,PERIODIC) 
        -:   39:      ELSE
    #####:   40:        VTYPE=2
    #####:   41:        CALL PHI_COLL(Mloc,Nloc,Ibeg,Iend,Jbeg,Jend,Nghost,Ut,VTYPE,PERIODIC)
    #####:   42:        VTYPE=3
    #####:   43:        CALL PHI_COLL(Mloc,Nloc,Ibeg,Iend,Jbeg,Jend,Nghost,Vt,VTYPE,PERIODIC)
        -:   44:
    #####:   45:        VTYPE=1
    #####:   46:        CALL PHI_COLL(Mloc,Nloc,Ibeg,Iend,Jbeg,Jend,Nghost,Utx,VTYPE,PERIODIC)
    #####:   47:        VTYPE=1
    #####:   48:        CALL PHI_COLL(Mloc,Nloc,Ibeg,Iend,Jbeg,Jend,Nghost,Vty,VTYPE,PERIODIC)
        -:   49:
    #####:   50:        VTYPE=2
    #####:   51:        CALL PHI_COLL(Mloc,Nloc,Ibeg,Iend,Jbeg,Jend,Nghost,Utxx,VTYPE,PERIODIC)
    #####:   52:        VTYPE=3
    #####:   53:        CALL PHI_COLL(Mloc,Nloc,Ibeg,Iend,Jbeg,Jend,Nghost,Vtyy,VTYPE,PERIODIC)
        -:   54:
    #####:   55:        VTYPE=1
    #####:   56:        CALL PHI_COLL(Mloc,Nloc,Ibeg,Iend,Jbeg,Jend,Nghost,Utxy,VTYPE,PERIODIC) 
    #####:   57:        CALL PHI_COLL(Mloc,Nloc,Ibeg,Iend,Jbeg,Jend,Nghost,Vtxy,VTYPE,PERIODIC) 
        -:   58:
    #####:   59:        VTYPE=2
    #####:   60:        CALL PHI_COLL(Mloc,Nloc,Ibeg,Iend,Jbeg,Jend,Nghost,DUtxx,VTYPE,PERIODIC)
    #####:   61:        VTYPE=3
    #####:   62:        CALL PHI_COLL(Mloc,Nloc,Ibeg,Iend,Jbeg,Jend,Nghost,DVtyy,VTYPE,PERIODIC)
        -:   63:
    #####:   64:        VTYPE=1
    #####:   65:        CALL PHI_COLL(Mloc,Nloc,Ibeg,Iend,Jbeg,Jend,Nghost,DUtxy,VTYPE,PERIODIC) 
    #####:   66:        CALL PHI_COLL(Mloc,Nloc,Ibeg,Iend,Jbeg,Jend,Nghost,DVtxy,VTYPE,PERIODIC) 
        -:   67:    
        -:   68:      ENDIF
        -:   69:
    #####:   70:      VTYPE=1  ! symetric in both direction
    #####:   71:      CALL PHI_COLL(Mloc,Nloc,Ibeg,Iend,Jbeg,Jend,Nghost,Ux,VTYPE,PERIODIC)
    #####:   72:      CALL PHI_COLL(Mloc,Nloc,Ibeg,Iend,Jbeg,Jend,Nghost,DUx,VTYPE,PERIODIC)
    #####:   73:      CALL PHI_COLL(Mloc,Nloc,Ibeg,Iend,Jbeg,Jend,Nghost,Vy,VTYPE,PERIODIC)
    #####:   74:      CALL PHI_COLL(Mloc,Nloc,Ibeg,Iend,Jbeg,Jend,Nghost,DVy,VTYPE,PERIODIC)
    #####:   75:      VTYPE=3  !like v
    #####:   76:      CALL PHI_COLL(Mloc,Nloc,Ibeg,Iend,Jbeg,Jend,Nghost,Uy,VTYPE,PERIODIC)
    #####:   77:      CALL PHI_COLL(Mloc,Nloc,Ibeg,Iend,Jbeg,Jend,Nghost,DUy,VTYPE,PERIODIC)
    #####:   78:      Vtype=2  !like u
    #####:   79:      CALL PHI_COLL(Mloc,Nloc,Ibeg,Iend,Jbeg,Jend,Nghost,Vx,VTYPE,PERIODIC)
    #####:   80:      CALL PHI_COLL(Mloc,Nloc,Ibeg,Iend,Jbeg,Jend,Nghost,DVx,VTYPE,PERIODIC)
    #####:   81:      VTYPE=2  ! like u
    #####:   82:      CALL PHI_COLL(Mloc,Nloc,Ibeg,Iend,Jbeg,Jend,Nghost,ETAx,VTYPE,PERIODIC)
    #####:   83:      VTYPE=3  ! like v
    #####:   84:      CALL PHI_COLL(Mloc,Nloc,Ibeg,Iend,Jbeg,Jend,Nghost,ETAy,VTYPE,PERIODIC)   
        -:   85:
        -:   86:    ENDIF
        -:   87:   
        -:   88:    
    #####:   89:END SUBROUTINE EXCHANGE_DISPERSION
        -:   90:
        -:   91:!-------------------------------------------------------------------
        -:   92:!   This subroutine is used to collect data into ghost cells                                                         
        -:   93:!   Called by
        -:   94:!      TVD_SOLVER
        -:   95:!
        -:   96:!   Call PHI_COLL
        -:   97:!
        -:   98:!   Update: 07/09/2010 Fengyan Shi, 
        -:   99:!     1) use dummy variables 2) add vtype=3
        -:  100:!   Update: 05/27/2010 Gangfeng Ma, University of Delaware                                         
        -:  101:!-------------------------------------------------------------------
     1376:  102:SUBROUTINE EXCHANGE
        -:  103:    USE GLOBAL
        -:  104:    IMPLICIT NONE
        -:  105:    INTEGER :: VTYPE
        -:  106:    REAL(SP),DIMENSION(Mloc,Nloc) :: rMASK
        -:  107:
      688:  108:    VTYPE=1
      688:  109:    CALL PHI_COLL(Mloc,Nloc,Ibeg,Iend,Jbeg,Jend,Nghost,Eta,VTYPE,PERIODIC)
        -:  110:
      688:  111:    rMASK = MASK ! for periodic boundary condition
      688:  112:    CALL PHI_COLL(Mloc,Nloc,Ibeg,Iend,Jbeg,Jend,Nghost,rMASK,VTYPE,PERIODIC)  
      688:  113:    MASK = rMASK  
        -:  114:
      688:  115:    VTYPE=2
      688:  116:    CALL PHI_COLL(Mloc,Nloc,Ibeg,Iend,Jbeg,Jend,Nghost,U,VTYPE,PERIODIC)
      688:  117:    CALL PHI_COLL(Mloc,Nloc,Ibeg,Iend,Jbeg,Jend,Nghost,HU,VTYPE,PERIODIC)
      688:  118:    VTYPE=3
      688:  119:    CALL PHI_COLL(Mloc,Nloc,Ibeg,Iend,Jbeg,Jend,Nghost,V,VTYPE,PERIODIC)
      688:  120:    CALL PHI_COLL(Mloc,Nloc,Ibeg,Iend,Jbeg,Jend,Nghost,HV,VTYPE,PERIODIC)
        -:  121:
        -:  122:! etaR x mask is a wrong idea
        -:  123:!    Eta=Eta*MASK
        -:  124:
      688:  125:    U=U*MASK
      688:  126:    V=V*MASK
      688:  127:    HU=HU*MASK
      688:  128:    HV=HV*MASK
        -:  129:    
      688:  130:END SUBROUTINE EXCHANGE
        -:  131:
        -:  132:!-------------------------------------------------------------------
        -:  133:!   This subroutine is used to collect data into ghost cells
        -:  134:!   Called by
        -:  135:!      Exchange
        -:  136:!
        -:  137:!   Update: 09/07/2010 Fengyan Shi, fix:
        -:  138:!   1) u v symmetric problem, 2) remove use global 3) fix bug
        -:  139:!   Update: 05/27/2010 Gangfeng Ma, University of Delaware
        -:  140:!-------------------------------------------------------------------
     4128:  141:SUBROUTINE PHI_COLL(Mloc,Nloc,Ibeg,Iend,Jbeg,Jend,Nghost,PHI,VTYPE,PERIODIC)
        -:  142:    USE PARAM
        -:  143:    IMPLICIT NONE
        -:  144:    INTEGER,INTENT(IN) :: VTYPE
        -:  145:    INTEGER,INTENT(IN) :: Mloc,Nloc,Ibeg,Iend,Jbeg,Jend,Nghost
        -:  146:    REAL(SP),INTENT(INOUT) :: PHI(Mloc,Nloc)
        -:  147:    LOGICAL :: PERIODIC
        -:  148:
        -:  149:! for Eta
     8256:  150:    IF(VTYPE==1) THEN  ! for eta
        -:  151:      ! x-direction
   276576:  152:      DO J=Jbeg,Jend  
  1100800:  153:      DO K=1,Nghost
   825600:  154:        PHI(K,J)=PHI(Ibeg+Nghost-K,J)
        -:  155:      ENDDO
        -:  156:      ENDDO
        -:  157:
   276576:  158:      DO J=Jbeg,Jend  
  1100800:  159:      DO K=1,Nghost
   825600:  160:        PHI(Iend+K,J)=PHI(Iend-K+1,J)
        -:  161:      ENDDO
        -:  162:      ENDDO
        -:  163:
        -:  164:
        -:  165:      ! y-direction and corners
     1376:  166:      IF(PERIODIC)THEN
    #####:  167:        DO I=1,Mloc
    #####:  168:        DO K=1,Nghost
    #####:  169:          PHI(I,K)=PHI(I,Jend-Nghost+K)
    #####:  170:          PHI(I,Jend+K)=PHI(I,Nghost+K)
        -:  171:        ENDDO
        -:  172:        ENDDO        
        -:  173:      ELSE
   835232:  174:      DO I=1,Mloc
  3335424:  175:      DO K=1,Nghost
  2501568:  176:        PHI(I,K)=PHI(I,Jbeg+Nghost-K)
        -:  177:      ENDDO
        -:  178:      ENDDO
        -:  179:
   835232:  180:      DO I=1,Mloc
  3335424:  181:      DO K=1,Nghost
  2501568:  182:        PHI(I,Jend+K)=PHI(I,Jend-K+1)
        -:  183:      ENDDO
        -:  184:      ENDDO
        -:  185:      ENDIF
        -:  186:
        -:  187:
        -:  188:! for u
        -:  189:    ELSEIF(VTYPE==2) THEN  ! for u (x-mirror condition)
        -:  190:      ! x-direction
   276576:  191:      DO J=Jbeg,Jend
  1100800:  192:      DO K=1,Nghost
   825600:  193:        PHI(K,J)=-PHI(Ibeg+Nghost-K,J)
        -:  194:      ENDDO
        -:  195:      ENDDO
        -:  196:
   276576:  197:      DO J=Jbeg,Jend
  1100800:  198:      DO K=1,Nghost
   825600:  199:        PHI(Iend+K,J)=-PHI(Iend-K+1,J)
        -:  200:      ENDDO
        -:  201:      ENDDO
        -:  202:
        -:  203:
        -:  204:      ! y-direction and corners
     1376:  205:      IF(PERIODIC)THEN
    #####:  206:        DO I=1,Mloc
    #####:  207:        DO K=1,Nghost
    #####:  208:          PHI(I,K)=PHI(I,Jend-Nghost+K)
    #####:  209:          PHI(I,Jend+K)=PHI(I,Nghost+K)
        -:  210:        ENDDO
        -:  211:        ENDDO        
        -:  212:      ELSE
   835232:  213:      DO I=1,Mloc
  3335424:  214:      DO K=1,Nghost
  2501568:  215:        PHI(I,K)=PHI(I,Jbeg+Nghost-K)
        -:  216:      ENDDO
        -:  217:      ENDDO
        -:  218:
   835232:  219:      DO I=1,Mloc
  3335424:  220:      DO K=1,Nghost
  2501568:  221:        PHI(I,Jend+K)=PHI(I,Jend-K+1)
        -:  222:      ENDDO
        -:  223:      ENDDO
        -:  224:      ENDIF
        -:  225:
        -:  226:    ELSEIF(VTYPE==3) THEN ! for v (y-mirror condition)
        -:  227:! for v
        -:  228:      ! x-direction
   276576:  229:      DO J=Jbeg,Jend
  1100800:  230:      DO K=1,Nghost
   825600:  231:        PHI(K,J)=PHI(Ibeg+Nghost-K,J)
        -:  232:      ENDDO
        -:  233:      ENDDO
        -:  234:
   276576:  235:      DO J=Jbeg,Jend
  1100800:  236:      DO K=1,Nghost
   825600:  237:        PHI(Iend+K,J)=PHI(Iend-K+1,J)
        -:  238:      ENDDO
        -:  239:      ENDDO
        -:  240:
        -:  241:
        -:  242:      ! y-direction and corners
     1376:  243:      IF(PERIODIC)THEN
    #####:  244:        DO I=1,Mloc
    #####:  245:        DO K=1,Nghost
    #####:  246:          PHI(I,K)=PHI(I,Jend-Nghost+K)
    #####:  247:          PHI(I,Jend+K)=PHI(I,Nghost+K)
        -:  248:        ENDDO
        -:  249:        ENDDO        
        -:  250:      ELSE
   835232:  251:      DO I=1,Mloc
  3335424:  252:      DO K=1,Nghost
  2501568:  253:        PHI(I,K)=-PHI(I,Jbeg+Nghost-K)
        -:  254:      ENDDO
        -:  255:      ENDDO
        -:  256:
   835232:  257:      DO I=1,Mloc
  3335424:  258:      DO K=1,Nghost
  2501568:  259:        PHI(I,Jend+K)=-PHI(I,Jend-K+1)
        -:  260:      ENDDO
        -:  261:      ENDDO
        -:  262:      ENDIF
        -:  263:
        -:  264:! for cross-derivatives
        -:  265:    ELSEIF(VTYPE==4) THEN ! VTYPE==4 for u and v cross-mirror
        -:  266:     ! x-direction
    #####:  267:      DO J=Jbeg,Jend
    #####:  268:      DO K=1,Nghost
    #####:  269:        PHI(K,J)=ZERO
        -:  270:      ENDDO
        -:  271:      ENDDO
        -:  272:
    #####:  273:      DO J=Jbeg,Jend
    #####:  274:      DO K=1,Nghost
    #####:  275:        PHI(Iend+K,J)=ZERO
        -:  276:      ENDDO
        -:  277:      ENDDO
        -:  278:
        -:  279:      ! y-direction and corners, this one is not an exact solution
    #####:  280:      DO I=1,Mloc
    #####:  281:      DO K=1,Nghost
    #####:  282:        PHI(I,K)=ZERO
        -:  283:      ENDDO
        -:  284:      ENDDO
        -:  285:
    #####:  286:      DO I=1,Mloc
    #####:  287:      DO K=1,Nghost
    #####:  288:        PHI(I,Jend+K)=ZERO
        -:  289:      ENDDO
        -:  290:      ENDDO
        -:  291:
        -:  292:
        -:  293:! for symmetric
        -:  294:    ELSEIF(VTYPE==5)THEN
        -:  295:      ! x-direction
    #####:  296:      DO J=Jbeg,Jend
    #####:  297:      DO K=1,Nghost
    #####:  298:        PHI(K,J)=PHI(Ibeg+Nghost-K,J)
        -:  299:       ENDDO
        -:  300:      ENDDO
        -:  301:
    #####:  302:      DO J=Jbeg,Jend
    #####:  303:      DO K=1,Nghost
    #####:  304:        PHI(Iend+K,J)=PHI(Iend-K+1,J)
        -:  305:      ENDDO
        -:  306:      ENDDO
        -:  307:
        -:  308:      ! y-direction and corners
        -:  309:
    #####:  310:      DO I=1,Mloc
    #####:  311:      DO K=1,Nghost
    #####:  312:        PHI(I,K)=PHI(I,Jbeg+Nghost-K)
        -:  313:      ENDDO
        -:  314:      ENDDO
        -:  315:
    #####:  316:      DO I=1,Mloc
    #####:  317:      DO K=1,Nghost
    #####:  318:        PHI(I,Jend+K)=PHI(I,Jend-K+1)
        -:  319:      ENDDO
        -:  320:      ENDDO
        -:  321:
        -:  322:
        -:  323:! for anti-symmetric
        -:  324:      ELSE
        -:  325:      ! x-direction
    #####:  326:      DO J=Jbeg,Jend
    #####:  327:      DO K=1,Nghost
    #####:  328:        PHI(K,J)=-PHI(Ibeg+Nghost-K,J)
        -:  329:      ENDDO
        -:  330:      ENDDO 
        -:  331:
    #####:  332:      DO J=Jbeg,Jend
    #####:  333:      DO K=1,Nghost
    #####:  334:        PHI(Iend+K,J)=-PHI(Iend-K+1,J)
        -:  335:      ENDDO
        -:  336:      ENDDO 
        -:  337:
        -:  338:      ! y-direction and corners
    #####:  339:      DO I=1,Mloc
    #####:  340:      DO K=1,Nghost
    #####:  341:        PHI(I,K)=-PHI(I,Jbeg+Nghost-K)
        -:  342:      ENDDO
        -:  343:      ENDDO     
        -:  344:
    #####:  345:      DO I=1,Mloc
    #####:  346:      DO K=1,Nghost
    #####:  347:        PHI(I,Jend+K)=-PHI(I,Jend-K+1)
        -:  348:      ENDDO
        -:  349:      ENDDO     
        -:  350:
        -:  351:
        -:  352:    ENDIF
        -:  353:
        -:  354:
     4128:  355:END SUBROUTINE PHI_COLL
        -:  356:
        -:  357:! ---------------------------------------------------
        -:  358:!    This is subroutine to provide boundary conditions at edges of domain
        -:  359:!    Last Update: 05/06/2010 Fengyan Shi, University of Delaware
        -:  360:! --------------------------------------------------
      516:  361:SUBROUTINE BOUNDARY_CONDITION
        -:  362:     USE GLOBAL
        -:  363:     IMPLICIT NONE
        -:  364:     REAL(SP)::Xi,Deps
        -:  365:
        -:  366:
        -:  367:! four sides of computational domain
        -:  368:
        -:  369:
   103716:  370:     DO J=Jbeg,Jend
   103200:  371:      P(Ibeg,J)=ZERO
   103200:  372:      Xi=EtaRxR(Ibeg,J)
   103200:  373:      Deps=Depthx(Ibeg,J)
   103200:  374:      Fx(Ibeg,J)=0.5_SP*GRAV*(Xi*Xi*Gamma3+2.0_SP*Xi*Deps)
   103200:  375:      Gx(Ibeg,J)=ZERO
        -:  376:      ENDDO
        -:  377:
        -:  378:
        -:  379:
        -:  380:
   103716:  381:     DO J=Jbeg,Jend
   103200:  382:      P(Iend1,J)=ZERO
   103200:  383:      Xi=EtaRxL(Iend1,J)
   103200:  384:      Deps=Depthx(Iend1,J)
   103200:  385:      Fx(Iend1,J)=0.5_SP*GRAV*(Xi*Xi*Gamma3+2.0_SP*Xi*Deps)
   103200:  386:      Gx(Iend1,J)=ZERO
        -:  387:     ENDDO
        -:  388:
        -:  389:
        -:  390:! y direction
      516:  391:   IF(PERIODIC)THEN
        -:  392:!   do nothing
        -:  393:   ELSE
        -:  394:
        -:  395:
   310116:  396:     DO I=Ibeg,Iend
   309600:  397:      Q(I,Jbeg)=ZERO
   309600:  398:      Fy(I,Jbeg)=ZERO
   309600:  399:      Xi=EtaRyR(I,Jbeg)
   309600:  400:      Deps=Depthy(I,Jbeg)
   309600:  401:      Gy(I,Jbeg)=0.5_SP*GRAV*(Xi*Xi*Gamma3+2.0_SP*Xi*Deps)
        -:  402:      ENDDO
        -:  403:
   310116:  404:     DO I=Ibeg,Iend
   309600:  405:      Q(I,Jend1)=ZERO
   309600:  406:      Fy(I,Jend1)=ZERO
   309600:  407:      Xi=EtaRyL(I,Jend1)
   309600:  408:      Deps=Depthy(I,Jend1)
   309600:  409:      Gy(I,Jend1)=0.5_SP*GRAV*(Xi*Xi*Gamma3+2.0_SP*Xi*Deps)
        -:  410:     ENDDO
        -:  411:
        -:  412:    ENDIF
        -:  413:
        -:  414:! mask points
        -:  415:! Jeff pointed out the loop should be Jbeg-1, Jend+1
        -:  416:! The problem is that the fluxes on the inter-processor boundaries may be
        -:  417:!modified if the point next to the boundary (e.g., in the ghost cells,
        -:  418:!managed by a different processor) is land, but as is the routine doesn't
        -:  419:!check for this. 
        -:  420:
   104748:  421:     DO j=Jbeg-1,Jend+1
 62851896:  422:     DO i=Ibeg-1,Iend+1
 62747664:  423:      IF(MASK(I,J)<1)THEN
    #####:  424:        P(I,J)=ZERO
        -:  425:! Jeff reported a bug here for parallel version
    #####:  426:        IF(I/=Ibeg)THEN
        -:  427:!         Fx(I,J)=0.5_SP*GRAV*HxL(I,J)*HxL(I,J)*MASK(I-1,J)
        -:  428:!new splitting method
    #####:  429:      Xi=EtaRxL(I,J)
    #####:  430:      Deps=Depthx(I,J)
    #####:  431:         Fx(I,J)=0.5_SP*GRAV*(Xi*Xi*Gamma3+2.0_SP*Xi*Deps)*MASK(I-1,J)
        -:  432:        ELSE
    #####:  433:         Fx(I,J)=ZERO
        -:  434:        ENDIF
    #####:  435:        Gx(I,J)=ZERO
        -:  436:
    #####:  437:        P(I+1,J)=ZERO
        -:  438:! Jeff also here
    #####:  439:        IF(I/=Iend)THEN
        -:  440:!         Fx(I+1,J)=0.5_SP*GRAV*HxR(I+1,J)*HxR(I+1,J)*MASK(I+1,J)
        -:  441:! new splitting method
    #####:  442:      Xi=EtaRxR(I+1,J)
    #####:  443:      Deps=Depthx(I+1,J)
    #####:  444:         Fx(I+1,J)=0.5_SP*GRAV*(Xi*Xi*Gamma3+2.0_SP*Xi*Deps)*MASK(I+1,J)
        -:  445:        ELSE
    #####:  446:         Fx(I+1,J)=ZERO
        -:  447:        ENDIF
    #####:  448:        Gx(I+1,J)=ZERO
        -:  449:
    #####:  450:        Q(I,J)=ZERO
    #####:  451:        Fy(I,J)=ZERO
        -:  452:! Jeff also here
    #####:  453:        IF(J/=Jbeg)THEN
        -:  454:!         Gy(I,J)=0.5_SP*GRAV*HyL(I,J)*HyL(I,J)*MASK(I,J-1)
        -:  455:! new splitting method
    #####:  456:      Xi=EtaRyL(I,J)
    #####:  457:      Deps=Depthy(I,J)
    #####:  458:         Gy(I,J)=0.5_SP*GRAV*(Xi*Xi*Gamma3+2.0_SP*Xi*Deps)*MASK(I,J-1)
        -:  459:        ELSE
    #####:  460:         Gy(I,J)=ZERO
        -:  461:        ENDIF
        -:  462:
    #####:  463:        Q(I,J+1)=ZERO
    #####:  464:        Fy(I,J+1)=ZERO
        -:  465:! Jeff also here
    #####:  466:        IF(J/=Jend)THEN
        -:  467:!         Gy(I,J+1)=0.5_SP*GRAV*HyR(I,J+1)*HyR(I,J+1)*MASK(I,J+1)
        -:  468:! new splitting method
    #####:  469:      Xi=EtaRyR(I,J+1)
    #####:  470:      Deps=Depthy(I,J+1)
    #####:  471:         Gy(I,J+1)=0.5_SP*GRAV*(Xi*Xi*Gamma3+2.0_SP*Xi*Deps)*MASK(I,J+1)
        -:  472:        ELSE
    #####:  473:         Gy(I,J+1)=ZERO
        -:  474:        ENDIF
        -:  475:      ENDIF
        -:  476:     ENDDO
        -:  477:     ENDDO
        -:  478:
      516:  479:END SUBROUTINE BOUNDARY_CONDITION
        -:  480:
        -:  481:! --------------------------------------------------
        -:  482:!    This is subroutine to provide solitary wave at left boundary
        -:  483:!    it can be specified in input.txt giving 'SOL'
        -:  484:!    called by
        -:  485:!       - MAIN
        -:  486:!    Last Update: 05/28/2010 Fengyan Shi, University of Delaware
        -:  487:! --------------------------------------------------
    #####:  488:SUBROUTINE SOLITARY_WAVE_LEFT_BOUNDARY
        -:  489:     USE GLOBAL
        -:  490:     IMPLICIT NONE
        -:  491:     REAL(SP):: aa,h00,c1,tex,tlag,zz
        -:  492:     INTEGER::Iwavemaker
        -:  493:
    #####:  494:       Iwavemaker=Ibeg
    #####:  495:       aa=AMP_SOLI
    #####:  496:       h00=DEP_SOLI
    #####:  497:       c1=sqrt(GRAV*h00*(1.0_SP+aa/h00))
    #####:  498:       DO J=1,Nloc
    #####:  499:         tex=sqrt(0.75_SP*aa/h00**3)
    #####:  500:         tlag=4.0_SP*h00/sqrt(aa/h00)
    #####:  501:         zz=aa/COSH(tex*(Lag_soli-c1*TIME))**2
    #####:  502:         Eta(Iwavemaker,J)=zz
    #####:  503:         H(Iwavemaker,J)=Eta(Iwavemaker,J)+Depth(Iwavemaker,J) 
        -:  504:! note: can not provide u and hu at boundary for dispersive equations!
        -:  505:!         U(Iwavemaker,J)= SQRT(grav/h00)*zz
        -:  506:!         HU(Iwavemaker,J)=h00*U(Iwavemaker,J)       
        -:  507:       enddo   
        -:  508:     
    #####:  509:END SUBROUTINE SOLITARY_WAVE_LEFT_BOUNDARY
