        -:    0:Source:mod_util.f90
        -:    0:Graph:mod_util.gcno
        -:    0:Data:mod_util.gcda
        -:    0:Runs:1
        -:    0:Programs:1
        -:    1:!=======================================================================
        -:    2:! OSCAR Input Utility Module         
        -:    3:!
        -:    4:! This is a module adopted from Cowles's mod_newinp.F and modified by 
        -:    5:! Fengyan Shi to facilitate input in the TVD solver.  
        -:    6:!=======================================================================
        -:    7:
        -:    8:Module Input_Util
        -:    9:
        -:   10:Use Param
        -:   11:Implicit None
        -:   12:
        -:   13:character(len=1), parameter :: com_char = '!'
        -:   14:
        -:   15:
        -:   16:!----------------------------------------
        -:   17:! interface definition: Overload Get_Val
        -:   18:!----------------------------------------
        -:   19:Interface Get_Val
       27:   20:  Module Procedure Get_Float_Val
       10:   21:  Module Procedure Get_String_Val
       30:   22:  Module Procedure Get_Logical_Val
        3:   23:  Module Procedure Get_Integer_Val
        -:   24:End Interface
        -:   25:
        -:   26:!----------------------------------------
        -:   27:! functions    
        -:   28:!----------------------------------------
        -:   29:
        -:   30:contains
        -:   31:  
        -:   32:  !---------------------------------------------------------------------
        -:   33:  !Get_Integer_Val -> Return Integer Value                    
        -:   34:  !---------------------------------------------------------------------
        -:   35:  Subroutine Get_Integer_Val(ival,filename,argname,line,echo,start,finish)  
        -:   36:  implicit none
        -:   37:  integer,          intent(out) :: ival 
        -:   38:  character(len=*), intent(in ) :: filename
        -:   39:  character(len=*), intent(in ) :: argname
        -:   40:  integer,          intent(out) :: line
        -:   41:  logical, optional,intent(in)  :: echo
        -:   42:  integer, optional,intent(in)  :: start
        -:   43:  integer, optional,intent(in)  :: finish 
        -:   44:
        -:   45:  character(len=80) :: argval
        -:   46:  character(len=80) :: argtype
        -:   47:  integer           :: ierr
        -:   48:
        -:   49:  !make sure file exists
        3:   50:  if(.not.check_exist(filename))then
        -:   51:    call error('Get_Val','halt','error reading: '//trim(argname), &
    #####:   52:              'file: '//trim(filename)//' does not exist') 
        -:   53:  endif
        -:   54:
        -:   55:  !check start and finish lines
        3:   56:  if(present(start) .and. present(finish))then
    #####:   57:    if(finish < start)then
    #####:   58:    call error('Get_Val','halt','finish must be greater than or equal to start')
        -:   59:    endif
        -:   60:  endif
        -:   61:
        -:   62:  !parse file for argument line 
        3:   63:  call Extract_Val_String(filename,argname,argval,ierr,line,start,finish)
        3:   64:  if(ierr == 1)then
        -:   65:!    call error('Get_Val','halt','error reading variable: '//trim(argname), &
        -:   66:!              'does not exist in file: '//trim(filename)) 
    #####:   67:     write(*,*) trim(argname),'is not specified.' 
        -:   68:  endif
        -:   69:
        -:   70:  !check argument type
        3:   71:  call Check_Arg_Type(argval,argtype)
        3:   72:  if(trim(argtype) /= 'integer')then
        -:   73:    call error('Get_Val','halt','error reading variable: '//trim(argname), &
        -:   74:              'in file: '//trim(filename), &        
    #####:   75:              'should be integer but is: '//trim(argtype))
        -:   76:  endif
        -:   77:
        -:   78:  ! set return value
        3:   79:  read(argval,*)ival   
        -:   80:
        -:   81:  ! echo to screen
        3:   82:  if(present(echo))then
    #####:   83:    if(echo)then 
    #####:   84:      write(*,'(A20,I10)')trim(argname)//': ',ival
        -:   85:    endif
        -:   86:  endif
        -:   87:  
        3:   88:  End Subroutine Get_Integer_Val
        -:   89:
        -:   90:
        -:   91:  !---------------------------------------------------------------------
        -:   92:  !Get_Float_Val -> Return Float
        -:   93:  !---------------------------------------------------------------------
        -:   94:  Subroutine Get_Float_Val(fval,filename,argname,line,echo,start,finish)  
        -:   95:  implicit none
        -:   96:  real(sp),         intent(out) :: fval
        -:   97:  character(len=*), intent(in ) :: filename
        -:   98:  character(len=*), intent(in ) :: argname
        -:   99:  integer,          intent(out) :: line
        -:  100:  logical, optional,intent(in)  :: echo
        -:  101:  integer, optional,intent(in)  :: start
        -:  102:  integer, optional,intent(in)  :: finish 
        -:  103:
        -:  104:  character(len=80) :: argval
        -:  105:  character(len=80) :: argtype
        -:  106:  integer           :: ierr
        -:  107:
        -:  108:
        -:  109:  !make sure file exists
       27:  110:  if(.not.check_exist(filename))then
        -:  111:    call error('Get_Val','halt','error reading: '//trim(argname), &
    #####:  112:              'file: '//trim(filename)//' does not exist') 
        -:  113:  endif
        -:  114:
        -:  115:  !check start and finish lines
       27:  116:  if(present(start) .and. present(finish))then
    #####:  117:    if(finish < start)then
    #####:  118:    call error('Get_Val','halt','finish must be greater than or equal to start')
        -:  119:    endif
        -:  120:  endif
        -:  121:
        -:  122:  !parse file for argument line 
       27:  123:  call Extract_Val_String(filename,argname,argval,ierr,line,start,finish)
       27:  124:  if(ierr == 1)then
        -:  125:    call error('Get_Val','halt','error reading variable: '//trim(argname), &
    #####:  126:              'does not exist in file: '//trim(filename)) 
        -:  127:  endif
        -:  128:
        -:  129:  !check argument type
       27:  130:  call Check_Arg_Type(argval,argtype)
       27:  131:  if(trim(argtype) /= 'float')then
        -:  132:    call error('Get_Val','halt','error reading variable: '//trim(argname), &
        -:  133:              'in file: '//trim(filename), &        
    #####:  134:              'should be float but is: '//trim(argtype))
        -:  135:  endif
        -:  136:
        -:  137:  ! set return value
       27:  138:  read(argval,*)fval  
        -:  139:
        -:  140:  ! echo to screen 
       27:  141:  if(present(echo))then
    #####:  142:    if(echo)then 
    #####:  143:      write(*,'(A20,F10.4)')trim(argname)//': ',fval
        -:  144:    endif
        -:  145:  end if
        -:  146:    
        -:  147:  
       27:  148:  End Subroutine Get_Float_Val
        -:  149:
        -:  150:
        -:  151:  !---------------------------------------------------------------------
        -:  152:  !Get_Logical_Val -> Return Logical 
        -:  153:  !---------------------------------------------------------------------
        -:  154:  Subroutine Get_Logical_Val(lval,filename,argname,line,echo,start,finish)  
        -:  155:  implicit none
        -:  156:  logical,          intent(out) :: lval
        -:  157:  character(len=*), intent(in ) :: filename
        -:  158:  character(len=*), intent(in ) :: argname
        -:  159:  integer,          intent(out) :: line
        -:  160:  logical, optional,intent(in)  :: echo
        -:  161:  integer, optional,intent(in)  :: start
        -:  162:  integer, optional,intent(in)  :: finish 
        -:  163:
        -:  164:  character(len=80) :: argval
        -:  165:  character(len=80) :: argtype
        -:  166:  integer           :: ierr
        -:  167:
        -:  168:  !make sure file exists
       30:  169:  if(.not.check_exist(filename))then
        -:  170:    call error('Get_Val','halt','error reading: '//trim(argname), &
    #####:  171:              'file: '//trim(filename)//' does not exist') 
        -:  172:  endif
        -:  173:
        -:  174:  !check start and finish lines
       30:  175:  if(present(start) .and. present(finish))then
    #####:  176:    if(finish < start)then
    #####:  177:    call error('Get_Val','halt','finish must be greater than or equal to start')
        -:  178:    endif
        -:  179:  endif
        -:  180:
        -:  181:  !parse file for argument line 
       30:  182:  call Extract_Val_String(filename,argname,argval,ierr,line,start,finish)
       30:  183:  if(ierr == 1)then
        -:  184:    call error('Get_Val','halt','error reading variable: '//trim(argname), &
    #####:  185:              'does not exist in file: '//trim(filename)) 
        -:  186:  endif
        -:  187:
        -:  188:  !check argument type
       30:  189:  call Check_Arg_Type(argval,argtype)
       30:  190:  if(trim(argtype) /= 'logical')then
        -:  191:    call error('Get_Val','halt','error reading variable: '//trim(argname), &
        -:  192:              'in file: '//trim(filename), &        
    #####:  193:              'should be logical but is: '//trim(argtype))
        -:  194:  endif
        -:  195:
        -:  196:  ! set return value
       30:  197:  lval = .false.
       30:  198:  if(argval(1:1) == 'T') lval = .true.
        -:  199:
        -:  200:  ! echo to screen 
       30:  201:  if(present(echo))then
    #####:  202:    if(echo)then 
    #####:  203:      write(*,'(A20,L10)')trim(argname)//': ',lval  
        -:  204:    endif
        -:  205:  endif
        -:  206:  
       30:  207:  End Subroutine Get_Logical_Val
        -:  208:
        -:  209:
        -:  210:  !---------------------------------------------------------------------
        -:  211:  !Get_String_Val -> Return String 
        -:  212:  !---------------------------------------------------------------------
        -:  213:  Subroutine Get_String_Val(sval,filename,argname,line,ierr,echo,start,finish)  
        -:  214:  implicit none
        -:  215:  character(len=*), intent(out) :: sval
        -:  216:  character(len=*), intent(in ) :: filename
        -:  217:  character(len=*), intent(in ) :: argname
        -:  218:  integer,          intent(out) :: line
        -:  219:  logical, optional,intent(in)  :: echo
        -:  220:  integer, optional,intent(in)  :: start
        -:  221:  integer, optional,intent(in)  :: finish 
        -:  222:  integer, intent(out) :: ierr
        -:  223:
        -:  224:  character(len=80) :: argval
        -:  225:  character(len=80) :: argtype
        -:  226:
        -:  227:
        -:  228:  !make sure file exists
       10:  229:  if(.not.check_exist(filename))then
        -:  230:    call error('Get_Val','halt','error reading: '//trim(argname), &
    #####:  231:              'file: '//trim(filename)//' does not exist') 
        -:  232:  endif
        -:  233:
        -:  234:  !check start and finish lines
       10:  235:  if(present(start) .and. present(finish))then
    #####:  236:    if(finish < start)then
    #####:  237:    call error('Get_Val','halt','finish must be greater than or equal to start')
        -:  238:    endif
        -:  239:  endif
        -:  240:
        -:  241:  !parse file for argument line 
       10:  242:  call Extract_Val_String(filename,argname,argval,ierr,line,start,finish)
       10:  243:  if(ierr == 1)then
        -:  244:!    call error('Get_Val','halt','error reading variable: '//trim(argname), &
        -:  245:!              'does not exist in file: '//trim(filename)) 
        1:  246:     write(*,*) trim(argname), ' is not specified'
        1:  247:     RETURN
        -:  248:  endif
        -:  249:
        -:  250:  !check argument type
        9:  251:  call Check_Arg_Type(argval,argtype)
        9:  252:  if(trim(argtype) /= 'string')then
        -:  253:    call error('Get_Val','halt','error reading variable: '//trim(argname), &
        -:  254:              'in file: '//trim(filename), &        
    #####:  255:              'should be string but is: '//trim(argtype))
        -:  256:  endif
        -:  257:
        -:  258:  ! set return value
        9:  259:  sval = adjustl(trim(argval))
        -:  260:  
        -:  261:  ! echo to screen 
        9:  262:  if(present(echo))then
    #####:  263:    if(echo)then 
    #####:  264:      write(*,'(A20,A20)') trim(argname)//': ',trim(sval)
        -:  265:    endif
        -:  266:  endif
       10:  267:  End Subroutine Get_String_Val
        -:  268:
        -:  269:
        -:  270:  !---------------------------------------------------------------------
        -:  271:  !Extract_Val_String: 
        -:  272:  !   Parse Input File for Value String Assigned to Desired Variable
        -:  273:  !---------------------------------------------------------------------
       70:  274:  Subroutine Extract_Val_String(fname,argname,argval,ierr,line,start,finish)
        -:  275:  implicit none
        -:  276:  character(len=* ), intent(in ) :: fname 
        -:  277:  character(len=* ), intent(in ) :: argname 
        -:  278:  character(len=80), intent(out) :: argval 
        -:  279:  integer,           intent(out) :: ierr
        -:  280:  integer,           intent(out) :: line 
        -:  281:  integer, optional, intent(in ) :: start
        -:  282:  integer, optional, intent(in ) :: finish 
        -:  283:  !------------------------------------------
        -:  284:  character(len=80)  :: temp,temp2,text_line,inpline
        -:  285:  integer            :: locex,eqloc,length,i,linecnt
        -:  286:
       70:  287:  ierr   = 0
       70:  288:  open(10,file=trim(fname)) ; rewind(10) 
        -:  289:
       70:  290:  linecnt = 0
        -:  291:  !move forward to start line if present
       70:  292:  if(present(start))then
    #####:  293:    do i=1,start-1
    #####:  294:      read(10,*)
    #####:  295:      linecnt = linecnt + 1
        -:  296:    end do
        -:  297:  endif
        -:  298:
    10406:  299:   do while(.true.)
    10476:  300:     read(10,'(A)',end=20) inpline 
    10475:  301:     linecnt = linecnt + 1
        -:  302:
        -:  303:    ! determine location of comment character and remove blanks
    10475:  304:    locex = index(inpline,com_char)
    10475:  305:    if(locex == 0)locex = len_trim(inpline)+1
    10475:  306:    temp = inpline(1:locex-1)
    10475:  307:    text_line = temp
        -:  308:
        -:  309:    ! set line length
    10475:  310:    length = len_trim(text_line)
        -:  311:   
        -:  312:    ! ensure "=" exist and determine location
    10475:  313:    eqloc = index(text_line,"=")
        -:  314:
        -:  315:
        -:  316:    ! split off variable name and value strings
    10475:  317:    temp2 = text_line(1:eqloc-1)
    10475:  318:    if(adjustl(trim(temp2)) == trim(argname))then
       69:  319:      argval  = adjustl(text_line(eqloc+1:length))
       69:  320:      line    = linecnt
       69:  321:      return
        -:  322:    endif
        -:  323:
        -:  324:    ! exit if finish is present
    10406:  325:    if(present(finish))then
    #####:  326:      if(linecnt==finish)exit
        -:  327:    endif
        -:  328:  end do
        -:  329:
        -:  330:  ! not found, return error = 1
        -:  331:  20 continue
        1:  332:  ierr = 1
        1:  333:  close(10)
        -:  334:
       70:  335:  End Subroutine Extract_Val_String  
        -:  336:
        -:  337:  !---------------------------------------------------------------------
        -:  338:  !check argument type (string,float,integer,logical)         
        -:  339:  !---------------------------------------------------------------------
       69:  340:  Subroutine Check_Arg_Type(argval,argtype)
        -:  341:  implicit none
        -:  342:  character(len=80), intent(out) :: argtype 
        -:  343:  character(len=80), intent(in ) :: argval  
        -:  344:
        -:  345:  character(len=16) :: numchars 
        -:  346:  integer           :: largval
        -:  347:  integer           :: dotloc
        -:  348:  integer           :: i
       69:  349:  numchars = "0123456789+-Ee. " 
        -:  350:
        -:  351:  ! argument length
       69:  352:  largval = len_trim(adjustl(argval))
        -:  353:
        -:  354:  ! check if logical
       69:  355:  if(largval == 1)then
       31:  356:  if(argval(1:1) == "T" .or. argval(1:1) == "F")then 
       30:  357:    argtype = 'logical' 
       30:  358:    return
        -:  359:  endif
        -:  360:  endif
        -:  361:    
        -:  362:  ! check if it is a string  (contains characters other than 0-9,+,-,E,e,.)
      165:  363:  do i=1,largval
      135:  364:    if(index(numchars,argval(i:i)) == 0)then
        9:  365:      argtype = "string" 
        9:  366:      return
        -:  367:    endif
        -:  368:  end do
        -:  369:
        -:  370:  ! check if it is a float
       30:  371:  dotloc = index(argval,".")
       30:  372:  if(dotloc /= 0) then
       27:  373:    argtype = "float"
        -:  374:  else
        3:  375:    argtype = "integer"
        -:  376:  end if
        -:  377:
       69:  378:  End Subroutine Check_Arg_Type
        -:  379:
        -:  380:
        -:  381:  !-------------------------------------------------------
        -:  382:  !Error
        -:  383:  !Write Error Message to Screen
        -:  384:  !-------------------------------------------------------
    #####:  385:  Subroutine Error(subname,errtype,err1,err2,err3)
        -:  386:    character(len=*)           :: subname
        -:  387:    character(len=*)           :: errtype
        -:  388:    character(len=*)           :: err1    
        -:  389:    character(len=*), optional :: err2 
        -:  390:    character(len=*), optional :: err3 
        -:  391:
    #####:  392:    if(errtype == 'halt')then
    #####:  393:      write(*,*)
    #####:  394:      write(*,*)'FATAL ERROR in subroutine: ',trim(subname)
    #####:  395:      write(*,*)trim(err1)
    #####:  396:      if(present(err2)) write(*,*)trim(err2)
    #####:  397:      if(present(err2)) write(*,*)trim(err3)
    #####:  398:      stop
        -:  399:    else if(errtype == 'warning')then
    #####:  400:      write(*,*)
    #####:  401:      write(*,*)'WARNING from subroutine: ',trim(subname)
    #####:  402:      write(*,*)trim(err1)
    #####:  403:      if(present(err2)) write(*,*)trim(err2)
    #####:  404:      if(present(err2)) write(*,*)trim(err3)
        -:  405:    else
    #####:  406:      write(*,*)'incorrect usage of subroutine Error'
    #####:  407:      write(*,*)'called from subroutine: ',trim(subname)
    #####:  408:      write(*,*)'errtype must be halt or warning'
    #####:  409:      stop
        -:  410:    endif
        -:  411:
    #####:  412:  End Subroutine Error
        -:  413:
        -:  414:  !-------------------------------------------------------
        -:  415:  !Check_Exist
        -:  416:  !Check for Existence of a File
        -:  417:  !-------------------------------------------------------
      140:  418:  Function Check_Exist(filein) Result(fexist) 
        -:  419:    implicit none
        -:  420:    character(len=*)           :: filein 
        -:  421:    logical fexist 
       70:  422:    inquire(exist=fexist,file=filein)
        -:  423:  End Function Check_Exist  
        -:  424:
        -:  425:  !-------------------------------------------------------
        -:  426:  !Check_Alloc
        -:  427:  !Check For Successfull Allocation of Data
        -:  428:  !-------------------------------------------------------
    #####:  429:  Subroutine Check_Alloc(errorin,dsize,varname,subname) 
        -:  430:    implicit none
        -:  431:    integer,          intent(in) :: errorin
        -:  432:    integer,          intent(in) :: dsize 
        -:  433:    character(len=*), intent(in) :: varname
        -:  434:    character(len=*), intent(in) :: subname
        -:  435:
    #####:  436:    if(errorin /= 0)then
    #####:  437:      write(*,*)'insufficient space to allocate array: '//trim(varname)
    #####:  438:      write(*,*)'in subroutine: '//trim(subname)
    #####:  439:      write(*,*)'tried to allocate ',dsize,' units'
    #####:  440:      stop
        -:  441:    endif
        -:  442:   
    #####:  443:  End Subroutine Check_Alloc  
        -:  444:
        -:  445:
        -:  446:  !-------------------------------------------------------
        -:  447:  !Check_IOError
        -:  448:  !Check For Successfull R/W 
        -:  449:  !-------------------------------------------------------
    #####:  450:  Subroutine Check_IOerror(errorin,filename,varname) 
        -:  451:    implicit none
        -:  452:    integer,          intent(in) :: errorin
        -:  453:    character(len=*), intent(in) :: filename
        -:  454:    character(len=*), intent(in) :: varname
        -:  455:
    #####:  456:    if(errorin /= 0)then
    #####:  457:      write(*,*)'failed read/write of: '//trim(varname)  
    #####:  458:      write(*,*)'from file: '//trim(filename)    
    #####:  459:      stop
        -:  460:    endif
        -:  461:   
    #####:  462:  End Subroutine Check_IOerror
        -:  463:
        -:  464:End Module Input_Util
